{
	"routes":[
		{"id":"recorrido0", "name":{"es":"Libre","ca":"Lliure","en":"Free"}},
		{"id":"recorrido0", "name":{"es":"Salas de profesores","ca":"Sales de professors","en":"Teacher's rooms"}},
		{"id":"recorrido0", "name":{"es":"Aulas","ca":"Aules","en":"Classrooms"}},
	],
	"sponsors":[],
	"videos":[],
	"areas":[
	{
		"id":"1",
		"name":"A6 Planta 1",
		"rooms":[
		{
			"id":"1",
            "name":{"es":"A6001", "ca":"A6001", "en":"A6001",},
			"type":"classroom",
            "description":{"es":"txt/A6001_es.htm", "ca":"txt/A6001_ca.htm", "en":"txt/A6001_en.htm",},
			"x":2,
			"y":0,
			"height":6,
			"width":4,
			"spaces":[
			{
				"order":0,
				"elements":[
				{
					"id":"0000_DOOR",
					"type":"door",
					"img":"door1_room1.1.jpg",
					"x": 2,
					"y": 4,
					"width": 1,
					"direction":"vert",
					"destiny_room":"outside",
				},
				]
			},

			],
		},
		{
			"id":"2",
            "name":{"es":"A6002", "ca":"A6002", "en":"A6002",},
			"type":"classroom",
            "description":{"es":"txt/A6002_es.htm", "ca":"txt/A6002_ca.htm", "en":"txt/A6002_en.htm",},
			"x":2,
			"y":9,
			"height":6,
			"width":4,
			"spaces":[
			{
				"order":0,
				"elements":[
				{
					"id":"0000_DOOR",
					"type":"door",
					"img":"door1_room1.1.jpg",
					"x": 2,
					"y": 9,
					"width": 1,
					"direction":"vert",
					"destiny_room":"outside",
				},
				]
			},

			],
		},
		{
			"id":"3",
            "name":{"es":"PASILLO", "ca":"PASSADIS", "en":"CORRIDOR",},
			"type":"corridor",
            "description":{"es":"txt/area1_room1_es.htm", "ca":"txt/area1_room1_ca.htm", "en":"txt/area1_room1_en.htm",},
			"x":0,
			"y":0,
			"height":15,
			"width":2,
			"spaces":[],
		},
		{
			"id":"4",
            "name":{"es":"PASILLO", "ca":"PASSADIS", "en":"CORRIDOR",},
			"type":"corridor",
            "description":{"es":"txt/area1_room1_es.htm", "ca":"txt/area1_room1_ca.htm", "en":"txt/area1_room1_en.htm",},
			"x":2,
			"y":6,
			"height":3,
			"width":4,
			"spaces":[],
		},
		]
	},
	{
		"id":"2",
		"name":"A6 Planta E",
		"rooms":[
		{
			"id":"5",
            "name":{"es":"A6E01", "ca":"A6E01", "en":"A6E01",},
			"type":"classroom",
            "description":{"es":"txt/A6E01_es.htm", "ca":"txt/A6E01_ca.htm", "en":"txt/A6E01_en.htm",},
			"x":0,
			"y":0,
			"height":6,
			"width":6,
			"spaces":[
			{
				"order":0,
				"elements":[
				{
					"id":"0000_DOOR",
					"type":"door",
					"img":"door1_room1.1.jpg",
					"x": 0,
					"y": 6,
					"width": 1,
					"direction":"hor",
					"destiny_room":"outside",
				},
				]
			},

			],
		},
		{
			"id":"6",
            "name":{"es":"A6E02", "ca":"A6E02", "en":"A6E02",},
			"type":"classroom",
            "description":{"es":"txt/A6E02_es.htm", "ca":"txt/A6E02_ca.htm", "en":"txt/A6E02_en.htm",},
			"x":0,
			"y":9,
			"height":6,
			"width":6,
			"spaces":[
			{
				"order":0,
				"elements":[
				{
					"id":"0000_DOOR",
					"type":"door",
					"img":"door1_room1.1.jpg",
					"x": 0,
					"y": 9,
					"width": 1,
					"direction":"hor",
					"destiny_room":"outside",
				},
				]
			},

			],
		},
		{
			"id":"7",
            "name":{"es":"PASILLO", "ca":"PASSADIS", "en":"CORRIDOR",},
			"type":"corridor",
            "description":{"es":"txt/area1_room1_es.htm", "ca":"txt/area1_room1_ca.htm", "en":"txt/area1_room1_en.htm",},
			"x":0,
			"y":6,
			"height":3,
			"width":6,
			"spaces":[],
		},
		]
	},
	{
		"id":"3",
		"name":"A5 Planta S",
		"rooms":[
		{
			"id":"8",
            "name":{"es":"A5S101", "ca":"A5S101", "en":"A5S101",},
			"type":"computer",
            "description":{"es":"txt/A6E01_es.htm", "ca":"txt/A6E01_ca.htm", "en":"txt/A6E01_en.htm",},
			"x":6,
			"y":0,
			"height":2,
			"width":4,
			"spaces":[
			{
				"order":0,
				"elements":[
				{
					"id":"0000_DOOR",
					"type":"door",
					"img":"door1_room1.1.jpg",
					"x": 6,
					"y": 1,
					"width": 1,
					"direction":"vert",
					"destiny_room":"20",
				},
				]
			},
			],
		},
		{
			"id":"9",
            "name":{"es":"A5S102", "ca":"A5S102", "en":"A5S102",},
			"type":"computer",
            "description":{"es":"txt/A6E02_es.htm", "ca":"txt/A6E02_ca.htm", "en":"txt/A6E02_en.htm",},
			"x":6,
			"y":2,
			"height":4,
			"width":4,
			"spaces":[
			{
				"order":0,
				"elements":[
				{
					"id":"0000_DOOR",
					"type":"door",
					"img":"door1_room1.1.jpg",
					"x": 6,
					"y": 3,
					"width": 1,
					"direction":"vert",
					"destiny_room":"20",
				},
				{
					"id":"0000_DOOR",
					"type":"door",
					"img":"door1_room1.1.jpg",
					"x": 6,
					"y": 5,
					"width": 1,
					"direction":"vert",
					"destiny_room":"20",
				},
				]
			},
			],
		},
		{
			"id":"10",
            "name":{"es":"A5S103", "ca":"A5S103", "en":"A5S103",},
			"type":"computer",
            "description":{"es":"txt/A6E02_es.htm", "ca":"txt/A6E02_ca.htm", "en":"txt/A6E02_en.htm",},
			"x":6,
			"y":6,
			"height":2,
			"width":4,
			"spaces":[
			{
				"order":0,
				"elements":[
				{
					"id":"0000_DOOR",
					"type":"door",
					"img":"door1_room1.1.jpg",
					"x": 6,
					"y": 7,
					"width": 1,
					"direction":"vert",
					"destiny_room":"20",
				},
				]
			},
			],
		},
		{
			"id":"11",
            "name":{"es":"A5S104", "ca":"A5S104", "en":"A5S104",},
			"type":"computer",
            "description":{"es":"txt/A6E02_es.htm", "ca":"txt/A6E02_ca.htm", "en":"txt/A6E02_en.htm",},
			"x":6,
			"y":10,
			"height":4,
			"width":4,
			"spaces":[
			{
				"order":0,
				"elements":[
				{
					"id":"0000_DOOR",
					"type":"door",
					"img":"door1_room1.1.jpg",
					"x": 6,
					"y": 10,
					"width": 1,
					"direction":"vert",
					"destiny_room":"20",
				},
				{
					"id":"0000_DOOR",
					"type":"door",
					"img":"door1_room1.1.jpg",
					"x": 6,
					"y": 12,
					"width": 1,
					"direction":"vert",
					"destiny_room":"20",
				},
				]
			},
			],
		},
		{
			"id":"12",
            "name":{"es":"A5S105", "ca":"A5S105", "en":"A5S105",},
			"type":"computer",
            "description":{"es":"txt/A6E02_es.htm", "ca":"txt/A6E02_ca.htm", "en":"txt/A6E02_en.htm",},
			"x":6,
			"y":14,
			"height":2,
			"width":4,
			"spaces":[
			{
				"order":0,
				"elements":[
				{
					"id":"0000_DOOR",
					"type":"door",
					"img":"door1_room1.1.jpg",
					"x": 6,
					"y": 14,
					"width": 1,
					"direction":"vert",
					"destiny_room":"20",
				},
				]
			},
			],
		},
		{
			"id":"13",
            "name":{"es":"A5S113", "ca":"A5S113", "en":"A5S113",},
			"type":"computer",
            "description":{"es":"txt/A6E02_es.htm", "ca":"txt/A6E02_ca.htm", "en":"txt/A6E02_en.htm",},
			"x":0,
			"y":0,
			"height":4,
			"width":4,
			"spaces":[
			{
				"order":0,
				"elements":[
				{
					"id":"0000_DOOR",
					"type":"door",
					"img":"door1_room1.1.jpg",
					"x": 4,
					"y": 3,
					"width": 1,
					"direction":"vert",
					"destiny_room":"20",
				},
				]
			},
			],
		},
		{
			"id":"14",
            "name":{"es":"A5S112", "ca":"A5S112", "en":"A5S112",},
			"type":"computer",
            "description":{"es":"txt/A6E02_es.htm", "ca":"txt/A6E02_ca.htm", "en":"txt/A6E02_en.htm",},
			"x":0,
			"y":4,
			"height":2,
			"width":4,
			"spaces":[
			{
				"order":0,
				"elements":[
				{
					"id":"0000_DOOR",
					"type":"door",
					"img":"door1_room1.1.jpg",
					"x": 4,
					"y": 5,
					"width": 1,
					"direction":"vert",
					"destiny_room":"20",
				},
				]
			},
			],
		},
		{
			"id":"15",
            "name":{"es":"A5S111", "ca":"A5S111", "en":"A5S111",},
			"type":"computer",
            "description":{"es":"txt/A6E02_es.htm", "ca":"txt/A6E02_ca.htm", "en":"txt/A6E02_en.htm",},
			"x":0,
			"y":6,
			"height":2,
			"width":4,
			"spaces":[
			{
				"order":0,
				"elements":[
				{
					"id":"0000_DOOR",
					"type":"door",
					"img":"door1_room1.1.jpg",
					"x": 4,
					"y": 7,
					"width": 1,
					"direction":"vert",
					"destiny_room":"20",
				},
				]
			},
			],
		},
		{
			"id":"16",
            "name":{"es":"Operación", "ca":"Operació", "en":"Operation",},
			"type":"neutral",
            "description":{"es":"txt/A6E02_es.htm", "ca":"txt/A6E02_ca.htm", "en":"txt/A6E02_en.htm",},
			"x":2,
			"y":8,
			"height":2,
			"width":2,
			"spaces":[],
		},
		{
			"id":"17",
            "name":{"es":"Impresoras", "ca":"Impresores", "en":"Printers",},
			"type":"neutral",
            "description":{"es":"txt/A6E02_es.htm", "ca":"txt/A6E02_ca.htm", "en":"txt/A6E02_en.htm",},
			"x":0,
			"y":8,
			"height":2,
			"width":2,
			"spaces":[],
		},
		{
			"id":"18",
            "name":{"es":"A5S109", "ca":"A5S109", "en":"A5S109",},
			"type":"computer",
            "description":{"es":"txt/A6E02_es.htm", "ca":"txt/A6E02_ca.htm", "en":"txt/A6E02_en.htm",},
			"x":0,
			"y":10,
			"height":4,
			"width":4,
			"spaces":[
			{
				"order":0,
				"elements":[
				{
					"id":"0000_DOOR",
					"type":"door",
					"img":"door1_room1.1.jpg",
					"x": 4,
					"y": 10,
					"width": 1,
					"direction":"vert",
					"destiny_room":"20",
				},
				{
					"id":"0000_DOOR",
					"type":"door",
					"img":"door1_room1.1.jpg",
					"x": 4,
					"y": 12,
					"width": 1,
					"direction":"vert",
					"destiny_room":"20",
				},
				]
			},
			],
		},
		{
			"id":"19",
            "name":{"es":"A5S108", "ca":"A5S108", "en":"A5S108",},
			"type":"computer",
            "description":{"es":"txt/A6E02_es.htm", "ca":"txt/A6E02_ca.htm", "en":"txt/A6E02_en.htm",},
			"x":0,
			"y":14,
			"height":4,
			"width":4,
			"spaces":[
			{
				"order":0,
				"elements":[
				{
					"id":"0000_DOOR",
					"type":"door",
					"img":"door1_room1.1.jpg",
					"x": 4,
					"y": 14,
					"width": 1,
					"direction":"vert",
					"destiny_room":"20",
				},
				]
			},
			],
		},
		{
			"id":"20",
            "name":{"es":"PASILLO", "ca":"PASSADIS", "en":"CORRIDOR",},
			"type":"corridor",
            "description":{"es":"txt/area1_room1_es.htm", "ca":"txt/area1_room1_ca.htm", "en":"txt/area1_room1_en.htm",},
			"x":4,
			"y":0,
			"height":16,
			"width":2,
			"spaces":[],
		},
		{
			"id":"21",
            "name":{"es":"PASILLO", "ca":"PASSADIS", "en":"CORRIDOR",},
			"type":"corridor",
            "description":{"es":"txt/area1_room1_es.htm", "ca":"txt/area1_room1_ca.htm", "en":"txt/area1_room1_en.htm",},
			"x":6,
			"y":8,
			"height":2,
			"width":4,
			"spaces":[],
		},
		]
	}
	]
}